…
#### Check top publishers

Look at which publisher has more number of book published.

``` r
queer_books_data %>% 
  count(publisher) %>% 
  arrange(desc(n))
```

    ## # A tibble: 285 × 2
    ##    publisher                                       n
    ##    <chr>                                       <int>
    ##  1 <NA>                                           39
    ##  2 Less Than Three Press                          14
    ##  3 Vintage                                        12
    ##  4 Dreamspinner Press                             10
    ##  5 Little, Brown Books for Young Readers           8
    ##  6 CreateSpace Independent Publishing Platform     7
    ##  7 DAW                                             7
    ##  8 Spectra                                         7
    ##  9 Tor Books                                       7
    ## 10 Ace                                             6
    ## # ℹ 275 more rows
…
``` r
book_genre %>% 
  pivot_longer(cols = genre_1:genre_8, names_to = c("genre_1", "genre_2", "genre_3", "genre_4", "genre_5", "genre_6", "genre_7", "genre_8"), names_pattern = "(_)(_)(_)(_)(_)(_)(_)(_)", values_to = "all_genre", values_drop_na = TRUE) %>% 
  select(!genre_1:genre_8) 
```

    ## # A tibble: 1,664 × 2
    ##    title                       all_genre
    ##    <chr>                       <chr>    
    ##  1 Welcome to Your Afterlife   aromantic
    ##  2 Welcome to Your Afterlife   asexual  
    ##  3 Welcome to Your Afterlife   bisexual 
    ##  4 Welcome to Your Afterlife   fantasy  
    ##  5 Welcome to Your Afterlife   romance  
    ##  6 Hazel's Theory of Evolution aromantic
    ##  7 Hazel's Theory of Evolution asexual  
    ##  8 Hazel's Theory of Evolution fiction  
    ##  9 The Bone People             aromantic
    ## 10 The Bone People             asexual  
    ## # ℹ 1,654 more rows
…
